Прикладная эконометрика - 11 Синтетический контроль
…
# Считаем оптимальные веса для синтетического контроля
    generate_weights(optimization_window = 1970:1988, # период, на котором подгоняем претренды
                     margin_ipop = .02, # параметр оптимизации: насколько близко мы подходим к ограничениям (подробности см. в ipop)
                     sigf_ipop = 7, # параметр оптимизации: количество знаков при округлении (подробности см. в ipop)
                     bound_ipop = 6 # параметр оптимизации: граница обрезки переменных (подробности см. в ipop)
    ) %>%
    
# Создаем синтетический контроль
    generate_control()

Посмотрим, что хранится в объекте, который мы создали

smoking_out

# A tibble: 78 × 11
   .id      .placebo .type .outcome .predictors .synthetic_control .unit_weights
   <chr>       <dbl> <chr> <list>   <list>      <list>             <list>       
 1 Califor…        0 trea… <tibble> <tibble>    <tibble [31 × 3]>  <tibble>     
 2 Califor…        0 cont… <tibble> <tibble>    <tibble [31 × 3]>  <tibble>     
 3 Rhode I…        1 trea… <tibble> <tibble>    <tibble [31 × 3]>  <tibble>     
 4 Rhode I…        1 cont… <tibble> <tibble>    <tibble [31 × 3]>  <tibble>     
 5 Tenness…        1 trea… <tibble> <tibble>    <tibble [31 × 3]>  <tibble>     
 6 Tenness…        1 cont… <tibble> <tibble>    <tibble [31 × 3]>  <tibble>     
 7 Indiana         1 trea… <tibble> <tibble>    <tibble [31 × 3]>  <tibble>     
 8 Indiana         1 cont… <tibble> <tibble>    <tibble [31 × 3]>  <tibble>     
 9 Nevada          1 trea… <tibble> <tibble>    <tibble [31 × 3]>  <tibble>     
10 Nevada          1 cont… <tibble> <tibble>    <tibble [31 × 3]>  <tibble>     
# ℹ 68 more rows
# ℹ 4 more variables: .predictor_weights <list>, .original_data <list>,
#   .meta <list>, .loss <list>
…
Однако для удобства для этого есть специальная функция, чтобы получить значения истинных продаж сигарет и их синтетический контроль

smoking_out %>% grab_synthetic_control()

# A tibble: 31 × 3
   time_unit real_y synth_y
       <dbl>  <dbl>   <dbl>
 1      1970   123     116.
 2      1971   121     118.
 3      1972   124.    123.
 4      1973   124.    124.
 5      1974   127.    126.
 6      1975   127.    127.
 7      1976   128     127.
 8      1977   126.    125.
 9      1978   126.    125.
10      1979   122.    122.
# ℹ 21 more rows
…
Также мы можем узнать какие наблюдения (штаты) с какими весами вошли в нашу синтетическую контрольную группу и какие предикторы имеют наибольшее значение при формировании контрольной группы.

W веса наблюдений (юнитов / штатов)

smoking_out %>% grab_unit_weights()

# A tibble: 38 × 2
   unit           weight
   <chr>           <dbl>
 1 Alabama     0.0000135
 2 Arkansas    0.0000128
 3 Colorado    0.110    
 4 Connecticut 0.0511   
 5 Delaware    0.0000129
 6 Georgia     0.0000109
 7 Idaho       0.00150  
 8 Illinois    0.0000781
 9 Indiana     0.0000122
10 Iowa        0.0000448
# ℹ 28 more rows
…
Для синтетического контроля есть способ проверки совокупного (на протяжении всех периодов после воздействия) эффекта после оказания воздействия. Об этом способе расчета p-value можно прочитать тут.

Фактически \(p-value = \frac{1}{n-rank}\), где n число штатов, а rank место в рейтинге Калифорнии после сортировки (R)MSPE ratio по убыванию. Это седьмой столбик в таблице ниже. Видим, что наш эффект значим на 1% уровне.

smoking_out %>% grab_significance()

# A tibble: 39 × 8
   unit_name     type   pre_mspe post_mspe mspe_ratio  rank fishers_exact_pvalue
   <chr>         <chr>     <dbl>     <dbl>      <dbl> <int>                <dbl>
 1 California    Treat…     3.94     390.       99.0      1               0.0256
 2 Georgia       Donor      3.48     174.       49.8      2               0.0513
 3 Virginia      Donor      5.86     171.       29.2      3               0.0769
 4 Indiana       Donor     18.4      415.       22.6      4               0.103 
 5 West Virginia Donor     14.3      287.       20.1      5               0.128 
 6 Connecticut   Donor     27.3      335.       12.3      6               0.154 
 7 Nebraska      Donor      6.47      54.3       8.40     7               0.179 
 8 Missouri      Donor      9.19      77.0       8.38     8               0.205 
 9 Texas         Donor     24.5      160.        6.54     9               0.231 
10 Idaho         Donor     53.2      340.        6.39    10               0.256 
# ℹ 29 more rows
# ℹ 1 more variable: z_score <dbl>
…
